<svg xmlns="http://www.w3.org/2000/svg" xmlns:xlink="http://www.w3.org/1999/xlink" width="31.728" height="28.04" viewBox="0 0 31.728 28.04">
  <defs>
    <clipPath id="clip-path">
      <rect id="사각형_229" data-name="사각형 229" width="31.728" height="28.04" fill="#fff"/>
    </clipPath>
  </defs>
  <g id="그룹_665" data-name="그룹 665" transform="translate(0 0)">
    <g id="그룹_586" data-name="그룹 586" transform="translate(0 0)" clip-path="url(#clip-path)">
      <path id="패스_125" data-name="패스 125" d="M24.933,34.4a14.669,14.669,0,0,1-10.2-4.1A12.424,12.424,0,0,0,3.767,27.05l-2.448.461a1.113,1.113,0,0,1-.413-2.186l2.448-.461A14.657,14.657,0,0,1,16.285,28.7a12.472,12.472,0,0,0,10.539,3.323l3.624-.555a1.113,1.113,0,0,1,.336,2.2l-3.624.555a14.719,14.719,0,0,1-2.227.169" transform="translate(0 -6.356)" fill="#fff"/>
      <path id="패스_126" data-name="패스 126" d="M24.933,22.095a14.666,14.666,0,0,1-10.2-4.1A12.424,12.424,0,0,0,3.767,14.748l-2.448.461a1.113,1.113,0,0,1-.413-2.186l2.448-.461A14.661,14.661,0,0,1,16.285,16.4a12.468,12.468,0,0,0,10.539,3.323l3.624-.555a1.113,1.113,0,0,1,.336,2.2l-3.624.555a14.726,14.726,0,0,1-2.227.169" transform="translate(0 -3.178)" fill="#fff"/>
      <path id="패스_127" data-name="패스 127" d="M24.933,9.792a14.666,14.666,0,0,1-10.2-4.1A12.426,12.426,0,0,0,3.767,2.444l-2.449.461A1.112,1.112,0,0,1,.906.719L3.354.258A14.656,14.656,0,0,1,16.285,4.1,12.468,12.468,0,0,0,26.824,7.423l3.624-.554a1.112,1.112,0,1,1,.336,2.2l-3.624.555a14.734,14.734,0,0,1-2.227.169" transform="translate(0 0)" fill="#fff"/>
    </g>
  </g>
</svg>
