<svg xmlns="http://www.w3.org/2000/svg" xmlns:xlink="http://www.w3.org/1999/xlink" width="31.5" height="15.928" viewBox="0 0 31.5 15.928">
  <defs>
    <clipPath id="clip-path">
      <rect id="사각형_471" data-name="사각형 471" width="31.5" height="15.928" fill="none"/>
    </clipPath>
  </defs>
  <g id="그룹_720" data-name="그룹 720" transform="translate(0 0)">
    <g id="그룹_719" data-name="그룹 719" transform="translate(0 0)" clip-path="url(#clip-path)">
      <path id="패스_151" data-name="패스 151" d="M9.754,10.779A4.967,4.967,0,0,1,6.219,9.315a3.484,3.484,0,0,0-4.922,0A.76.76,0,0,1,.223,8.241a5,5,0,0,1,7.071,0,3.486,3.486,0,0,0,4.922,0,5,5,0,0,1,7.07,0,3.486,3.486,0,0,0,4.922,0,5,5,0,0,1,7.071,0A.76.76,0,1,1,30.2,9.315a3.479,3.479,0,0,0-4.922,0,5.006,5.006,0,0,1-7.07,0,3.479,3.479,0,0,0-4.922,0,4.967,4.967,0,0,1-3.535,1.464" transform="translate(0 -0.814)" fill="#666"/>
      <path id="패스_152" data-name="패스 152" d="M9.754,17.557a4.967,4.967,0,0,1-3.535-1.464,3.484,3.484,0,0,0-4.922,0A.76.76,0,0,1,.223,15.019a5.005,5.005,0,0,1,7.071,0,3.486,3.486,0,0,0,4.922,0,5,5,0,0,1,7.07,0,3.485,3.485,0,0,0,4.922,0,5,5,0,0,1,7.071,0A.76.76,0,0,1,30.2,16.093a3.479,3.479,0,0,0-4.922,0,5.006,5.006,0,0,1-7.07,0,3.479,3.479,0,0,0-4.922,0,4.967,4.967,0,0,1-3.535,1.464" transform="translate(0 -1.629)" fill="#345729"/>
      <path id="패스_153" data-name="패스 153" d="M21.746,4A4.964,4.964,0,0,1,18.21,2.537a3.487,3.487,0,0,0-4.922,0A4.964,4.964,0,0,1,9.753,4,4.964,4.964,0,0,1,6.219,2.537a3.487,3.487,0,0,0-4.922,0A.76.76,0,0,1,.223,1.462a5.007,5.007,0,0,1,7.071,0,3.453,3.453,0,0,0,2.46,1.02,3.454,3.454,0,0,0,2.461-1.02,5.007,5.007,0,0,1,7.071,0,3.483,3.483,0,0,0,4.922,0,5,5,0,0,1,7.07,0A.76.76,0,1,1,30.2,2.537a3.485,3.485,0,0,0-4.921,0A4.966,4.966,0,0,1,21.746,4" transform="translate(0 0)" fill="#666"/>
    </g>
  </g>
</svg>