<svg id="그룹_740" data-name="그룹 740" xmlns="http://www.w3.org/2000/svg" xmlns:xlink="http://www.w3.org/1999/xlink" width="21.984" height="22.832" viewBox="0 0 21.984 22.832">
  <defs>
    <clipPath id="clip-path">
      <rect id="사각형_487" data-name="사각형 487" width="21.984" height="22.832" fill="#666"/>
    </clipPath>
  </defs>
  <g id="그룹_739" data-name="그룹 739" clip-path="url(#clip-path)">
    <path id="패스_202" data-name="패스 202" d="M11.386,22.922A10.729,10.729,0,1,1,22.114,12.194,10.74,10.74,0,0,1,11.386,22.922m0-20.168a9.439,9.439,0,1,0,9.439,9.439,9.45,9.45,0,0,0-9.439-9.439" transform="translate(-0.375 -0.835)" fill="#666"/>
    <path id="패스_203" data-name="패스 203" d="M20.294,25.184A4.083,4.083,0,1,1,24.376,21.1a4.088,4.088,0,0,1-4.082,4.083m0-6.876A2.794,2.794,0,1,0,23.087,21.1a2.8,2.8,0,0,0-2.793-2.794" transform="translate(-9.243 -9.704)" fill="#666"/>
    <path id="패스_204" data-name="패스 204" d="M23.966,12.759h0a.643.643,0,0,1-.641-.643A6.078,6.078,0,0,1,24.7,8.624a6.6,6.6,0,0,0-4.125-.16,4.88,4.88,0,0,0,1.174,3.014.645.645,0,1,1-.893.93,6.588,6.588,0,0,1-1.589-4.421.645.645,0,0,1,.425-.591,7.832,7.832,0,0,1,6.408.461A.644.644,0,0,1,26.21,8.87a4.965,4.965,0,0,0-1.6,3.25.646.646,0,0,1-.645.639" transform="translate(-10.985 -3.945)" fill="#666"/>
    <path id="패스_205" data-name="패스 205" d="M9.139,18.512a7.8,7.8,0,0,1-2.582-.468.644.644,0,0,1-.41-.6A7.83,7.83,0,0,1,8.771,11.58a.644.644,0,0,1,.992.24,4.967,4.967,0,0,0,2.5,2.613.645.645,0,0,1-.441,1.212,6.079,6.079,0,0,1-2.81-2.487,6.6,6.6,0,0,0-1.561,3.82,4.883,4.883,0,0,0,3.234-.072.644.644,0,1,1,.568,1.157,4.792,4.792,0,0,1-2.115.449" transform="translate(-3.505 -6.522)" fill="#666"/>
    <path id="패스_206" data-name="패스 206" d="M12.29,35.085a.629.629,0,0,1-.221-.04,7.827,7.827,0,0,1-4.612-4.472.645.645,0,0,1,.565-.85,4.969,4.969,0,0,0,3.311-1.457.645.645,0,1,1,.988.828,6.069,6.069,0,0,1-3.3,1.791,6.6,6.6,0,0,0,3.057,2.774A4.882,4.882,0,0,0,13.117,30.6a.645.645,0,1,1,1.282-.138,6.587,6.587,0,0,1-1.624,4.407.646.646,0,0,1-.484.22" transform="translate(-4.233 -15.987)" fill="#666"/>
    <path id="패스_207" data-name="패스 207" d="M25.519,37.257h-.04a.644.644,0,0,1-.606-.822,4.963,4.963,0,0,0-.237-3.61.645.645,0,0,1,1.117-.645,6.075,6.075,0,0,1,.555,3.712,6.6,6.6,0,0,0,3.651-1.923,4.874,4.874,0,0,0-2.524-2.023.645.645,0,0,1,.309-1.252,6.585,6.585,0,0,1,3.585,3.034.644.644,0,0,1-.072.724,7.847,7.847,0,0,1-5.739,2.805" transform="translate(-13.999 -17.491)" fill="#666"/>
    <path id="패스_208" data-name="패스 208" d="M36.523,23.113a.649.649,0,0,1-.379-.122,4.971,4.971,0,0,0-3.473-1.013.644.644,0,1,1-.224-1.269,6.073,6.073,0,0,1,3.678.748,6.593,6.593,0,0,0-.558-4.089,4.883,4.883,0,0,0-2.764,1.68.645.645,0,0,1-1.071-.718A6.593,6.593,0,0,1,35.809,16a.649.649,0,0,1,.656.316,7.827,7.827,0,0,1,.658,6.39.642.642,0,0,1-.6.41" transform="translate(-18.032 -9.118)" fill="#666"/>
    <path id="패스_209" data-name="패스 209" d="M1.7,1.209A.85.85,0,1,1,.85.36a.851.851,0,0,1,.851.849" transform="translate(0 -0.205)" fill="#666"/>
    <path id="패스_210" data-name="패스 210" d="M48.444.85a.85.85,0,1,1-.85-.85.851.851,0,0,1,.85.85" transform="translate(-26.654)" fill="#666"/>
    <path id="패스_211" data-name="패스 211" d="M2.15,50.019a.85.85,0,1,1-.85-.85.851.851,0,0,1,.85.85" transform="translate(-0.257 -28.037)" fill="#666"/>
    <path id="패스_212" data-name="패스 212" d="M48.9,49.66a.85.85,0,1,1-.851-.85.851.851,0,0,1,.851.85" transform="translate(-26.912 -27.832)" fill="#666"/>
  </g>
</svg>